info face="OCRAStd" size=64 bold=0 italic=0 charset="" unicode=0 stretchH=100 smooth=1 aa=1 padding=0,0,0,0 spacing=2,2
common lineHeight=76 base=50 scaleW=512 scaleH=512 pages=1 packed=0
page id=0 file="OCR.png"
chars count=95
char id=124 x=2 y=2 width=10 height=73 xoffset=18 yoffset=-3 xadvance=36 page=0 chnl=0 letter="|"
char id=106 x=14 y=2 width=27 height=68 xoffset=10 yoffset=-0 xadvance=36 page=0 chnl=0 letter="j"
char id=78 x=43 y=2 width=34 height=55 xoffset=6 yoffset=-0 xadvance=36 page=0 chnl=0 letter="N"
char id=65 x=79 y=2 width=34 height=54 xoffset=6 yoffset=-0 xadvance=36 page=0 chnl=0 letter="A"
char id=66 x=115 y=2 width=34 height=54 xoffset=6 yoffset=-0 xadvance=36 page=0 chnl=0 letter="B"
char id=67 x=151 y=2 width=34 height=54 xoffset=6 yoffset=-0 xadvance=36 page=0 chnl=0 letter="C"
char id=68 x=187 y=2 width=34 height=54 xoffset=6 yoffset=-0 xadvance=36 page=0 chnl=0 letter="D"
char id=69 x=223 y=2 width=34 height=54 xoffset=6 yoffset=-0 xadvance=36 page=0 chnl=0 letter="E"
char id=70 x=259 y=2 width=34 height=54 xoffset=6 yoffset=-0 xadvance=36 page=0 chnl=0 letter="F"
char id=71 x=295 y=2 width=34 height=54 xoffset=6 yoffset=-0 xadvance=36 page=0 chnl=0 letter="G"
char id=72 x=331 y=2 width=34 height=54 xoffset=6 yoffset=-0 xadvance=36 page=0 chnl=0 letter="H"
char id=73 x=367 y=2 width=34 height=54 xoffset=6 yoffset=-0 xadvance=36 page=0 chnl=0 letter="I"
char id=75 x=403 y=2 width=34 height=54 xoffset=6 yoffset=-0 xadvance=36 page=0 chnl=0 letter="K"
char id=76 x=439 y=2 width=34 height=54 xoffset=6 yoffset=-0 xadvance=36 page=0 chnl=0 letter="L"
char id=77 x=475 y=2 width=34 height=54 xoffset=6 yoffset=-0 xadvance=36 page=0 chnl=0 letter="M"
char id=79 x=2 y=77 width=34 height=54 xoffset=6 yoffset=-0 xadvance=36 page=0 chnl=0 letter="O"
char id=80 x=38 y=77 width=34 height=54 xoffset=6 yoffset=-0 xadvance=36 page=0 chnl=0 letter="P"
char id=81 x=74 y=77 width=34 height=54 xoffset=6 yoffset=-0 xadvance=36 page=0 chnl=0 letter="Q"
char id=82 x=110 y=77 width=34 height=54 xoffset=6 yoffset=-0 xadvance=36 page=0 chnl=0 letter="R"
char id=83 x=146 y=77 width=34 height=54 xoffset=6 yoffset=-0 xadvance=36 page=0 chnl=0 letter="S"
char id=84 x=182 y=77 width=34 height=54 xoffset=6 yoffset=-0 xadvance=36 page=0 chnl=0 letter="T"
char id=85 x=218 y=77 width=34 height=54 xoffset=6 yoffset=-0 xadvance=36 page=0 chnl=0 letter="U"
char id=86 x=254 y=77 width=34 height=54 xoffset=6 yoffset=-0 xadvance=36 page=0 chnl=0 letter="V"
char id=87 x=290 y=77 width=34 height=54 xoffset=6 yoffset=-0 xadvance=36 page=0 chnl=0 letter="W"
char id=88 x=326 y=77 width=34 height=54 xoffset=6 yoffset=-0 xadvance=36 page=0 chnl=0 letter="X"
char id=89 x=362 y=77 width=34 height=54 xoffset=6 yoffset=-0 xadvance=36 page=0 chnl=0 letter="Y"
char id=90 x=398 y=77 width=34 height=54 xoffset=6 yoffset=-0 xadvance=36 page=0 chnl=0 letter="Z"
char id=49 x=434 y=77 width=34 height=54 xoffset=6 yoffset=-0 xadvance=36 page=0 chnl=0 letter="1"
char id=50 x=470 y=77 width=34 height=54 xoffset=6 yoffset=-0 xadvance=36 page=0 chnl=0 letter="2"
char id=51 x=2 y=133 width=34 height=54 xoffset=6 yoffset=-0 xadvance=36 page=0 chnl=0 letter="3"
char id=53 x=38 y=133 width=34 height=54 xoffset=6 yoffset=-0 xadvance=36 page=0 chnl=0 letter="5"
char id=54 x=74 y=133 width=34 height=54 xoffset=6 yoffset=-0 xadvance=36 page=0 chnl=0 letter="6"
char id=55 x=110 y=133 width=34 height=54 xoffset=6 yoffset=-0 xadvance=36 page=0 chnl=0 letter="7"
char id=56 x=146 y=133 width=34 height=54 xoffset=6 yoffset=-0 xadvance=36 page=0 chnl=0 letter="8"
char id=57 x=182 y=133 width=34 height=54 xoffset=6 yoffset=-0 xadvance=36 page=0 chnl=0 letter="9"
char id=48 x=218 y=133 width=34 height=54 xoffset=6 yoffset=-0 xadvance=36 page=0 chnl=0 letter="0"
char id=63 x=254 y=133 width=34 height=54 xoffset=6 yoffset=-0 xadvance=36 page=0 chnl=0 letter="?"
char id=91 x=290 y=133 width=34 height=54 xoffset=6 yoffset=-0 xadvance=36 page=0 chnl=0 letter="["
char id=93 x=326 y=133 width=34 height=54 xoffset=6 yoffset=-0 xadvance=36 page=0 chnl=0 letter="]"
char id=123 x=362 y=133 width=34 height=54 xoffset=6 yoffset=-0 xadvance=36 page=0 chnl=0 letter="{"
char id=125 x=398 y=133 width=34 height=54 xoffset=6 yoffset=-0 xadvance=36 page=0 chnl=0 letter="}"
char id=47 x=434 y=133 width=34 height=54 xoffset=6 yoffset=-0 xadvance=36 page=0 chnl=0 letter="/"
char id=64 x=470 y=133 width=34 height=54 xoffset=6 yoffset=-0 xadvance=36 page=0 chnl=0 letter="@"
char id=92 x=2 y=189 width=34 height=54 xoffset=6 yoffset=-0 xadvance=36 page=0 chnl=0 letter="\"
char id=36 x=38 y=189 width=34 height=54 xoffset=6 yoffset=-0 xadvance=36 page=0 chnl=0 letter="$"
char id=37 x=74 y=189 width=34 height=54 xoffset=6 yoffset=-0 xadvance=36 page=0 chnl=0 letter="%"
char id=52 x=110 y=189 width=31 height=54 xoffset=8 yoffset=-0 xadvance=36 page=0 chnl=0 letter="4"
char id=74 x=143 y=189 width=28 height=54 xoffset=9 yoffset=-0 xadvance=36 page=0 chnl=0 letter="J"
char id=105 x=173 y=189 width=27 height=54 xoffset=10 yoffset=-0 xadvance=36 page=0 chnl=0 letter="i"
char id=40 x=202 y=189 width=20 height=54 xoffset=13 yoffset=-0 xadvance=36 page=0 chnl=0 letter="("
char id=41 x=224 y=189 width=20 height=54 xoffset=13 yoffset=-0 xadvance=36 page=0 chnl=0 letter=")"
char id=33 x=246 y=189 width=12 height=54 xoffset=17 yoffset=-0 xadvance=36 page=0 chnl=0 letter="!"
char id=103 x=260 y=189 width=33 height=53 xoffset=6 yoffset=15 xadvance=36 page=0 chnl=0 letter="g"
char id=112 x=295 y=189 width=33 height=53 xoffset=6 yoffset=15 xadvance=36 page=0 chnl=0 letter="p"
char id=113 x=330 y=189 width=33 height=53 xoffset=6 yoffset=15 xadvance=36 page=0 chnl=0 letter="q"
char id=121 x=365 y=189 width=33 height=53 xoffset=6 yoffset=15 xadvance=36 page=0 chnl=0 letter="y"
char id=98 x=400 y=189 width=33 height=52 xoffset=6 yoffset=2 xadvance=36 page=0 chnl=0 letter="b"
char id=100 x=435 y=189 width=33 height=52 xoffset=6 yoffset=2 xadvance=36 page=0 chnl=0 letter="d"
char id=104 x=470 y=189 width=33 height=52 xoffset=6 yoffset=2 xadvance=36 page=0 chnl=0 letter="h"
char id=107 x=2 y=245 width=33 height=52 xoffset=6 yoffset=2 xadvance=36 page=0 chnl=0 letter="k"
char id=102 x=37 y=245 width=30 height=52 xoffset=8 yoffset=2 xadvance=36 page=0 chnl=0 letter="f"
char id=108 x=69 y=245 width=27 height=52 xoffset=10 yoffset=2 xadvance=36 page=0 chnl=0 letter="l"
char id=60 x=98 y=245 width=38 height=49 xoffset=4 yoffset=1 xadvance=36 page=0 chnl=0 letter="<"
char id=62 x=138 y=245 width=38 height=49 xoffset=4 yoffset=1 xadvance=36 page=0 chnl=0 letter=">"
char id=38 x=178 y=245 width=34 height=49 xoffset=6 yoffset=5 xadvance=36 page=0 chnl=0 letter="&"
char id=116 x=214 y=245 width=33 height=49 xoffset=6 yoffset=5 xadvance=36 page=0 chnl=0 letter="t"
char id=59 x=249 y=245 width=22 height=49 xoffset=12 yoffset=5 xadvance=36 page=0 chnl=0 letter=";"
char id=35 x=273 y=245 width=34 height=45 xoffset=6 yoffset=3 xadvance=36 page=0 chnl=0 letter="#"
char id=42 x=309 y=245 width=34 height=44 xoffset=6 yoffset=5 xadvance=36 page=0 chnl=0 letter="*"
char id=97 x=345 y=245 width=33 height=39 xoffset=6 yoffset=15 xadvance=36 page=0 chnl=0 letter="a"
char id=99 x=380 y=245 width=33 height=39 xoffset=6 yoffset=15 xadvance=36 page=0 chnl=0 letter="c"
char id=101 x=415 y=245 width=33 height=39 xoffset=6 yoffset=15 xadvance=36 page=0 chnl=0 letter="e"
char id=109 x=450 y=245 width=33 height=39 xoffset=6 yoffset=15 xadvance=36 page=0 chnl=0 letter="m"
char id=110 x=2 y=299 width=33 height=39 xoffset=6 yoffset=15 xadvance=36 page=0 chnl=0 letter="n"
char id=111 x=37 y=299 width=33 height=39 xoffset=6 yoffset=15 xadvance=36 page=0 chnl=0 letter="o"
char id=114 x=72 y=299 width=33 height=39 xoffset=6 yoffset=15 xadvance=36 page=0 chnl=0 letter="r"
char id=115 x=107 y=299 width=33 height=39 xoffset=6 yoffset=15 xadvance=36 page=0 chnl=0 letter="s"
char id=117 x=142 y=299 width=33 height=39 xoffset=6 yoffset=15 xadvance=36 page=0 chnl=0 letter="u"
char id=118 x=177 y=299 width=33 height=39 xoffset=6 yoffset=15 xadvance=36 page=0 chnl=0 letter="v"
char id=119 x=212 y=299 width=33 height=39 xoffset=6 yoffset=15 xadvance=36 page=0 chnl=0 letter="w"
char id=120 x=247 y=299 width=33 height=39 xoffset=6 yoffset=15 xadvance=36 page=0 chnl=0 letter="x"
char id=122 x=282 y=299 width=33 height=39 xoffset=6 yoffset=15 xadvance=36 page=0 chnl=0 letter="z"
char id=58 x=317 y=299 width=16 height=38 xoffset=15 yoffset=8 xadvance=36 page=0 chnl=0 letter=":"
char id=43 x=335 y=299 width=34 height=36 xoffset=6 yoffset=9 xadvance=36 page=0 chnl=0 letter="+"
char id=94 x=371 y=299 width=32 height=33 xoffset=7 yoffset=11 xadvance=36 page=0 chnl=0 letter="^"
char id=44 x=405 y=299 width=22 height=27 xoffset=12 yoffset=27 xadvance=36 page=0 chnl=0 letter=","
char id=34 x=429 y=299 width=34 height=25 xoffset=6 yoffset=-0 xadvance=36 page=0 chnl=0 letter="""
char id=61 x=465 y=299 width=34 height=25 xoffset=6 yoffset=13 xadvance=36 page=0 chnl=0 letter="="
char id=39 x=2 y=340 width=16 height=25 xoffset=15 yoffset=-0 xadvance=36 page=0 chnl=0 letter="'"
char id=126 x=20 y=340 width=38 height=22 xoffset=4 yoffset=16 xadvance=36 page=0 chnl=0 letter="~"
char id=96 x=60 y=340 width=20 height=17 xoffset=13 yoffset=-0 xadvance=36 page=0 chnl=0 letter="`"
char id=46 x=82 y=340 width=16 height=16 xoffset=15 yoffset=30 xadvance=36 page=0 chnl=0 letter="."
char id=45 x=100 y=340 width=26 height=13 xoffset=10 yoffset=21 xadvance=36 page=0 chnl=0 letter="-"
char id=95 x=128 y=340 width=49 height=12 xoffset=-2 yoffset=53 xadvance=36 page=0 chnl=0 letter="_"
char id=32 x=179 y=340 width=0 height=0 xoffset=23 yoffset=170 xadvance=36 page=0 chnl=0 letter="space"
